{
  "name": "Avaliation",
  "base": "PersistedModel",
  "idInjection": true,
  "options": {
    "validateUpsert": true
  },
  "properties": {
    "date": {
      "type": "date",
      "required": true
    },
    "data": {
      "type": "object"
    }
  },
  "validations": [],
  "relations": {
    "work": {
      "type": "belongsTo",
      "model": "Work",
      "foreignKey": ""
    },
    "customer": {
      "type": "belongsTo",
      "model": "Customer",
      "foreignKey": ""
    }
  },
  "acls": [],
  "methods": {}
}
