{
  "name": "CustomerGroup",
  "base": "PersistedModel",
  "idInjection": true,
  "options": {
    "validateUpsert": true
  },
  "properties": {
    "name": {
      "type": "string",
      "required": true
    },
    "stages": {
      "type": [
        "string"
      ],
      "required": true
    },
    "tokens": {
      "type": [
        "string"
      ]
    }
  },
  "validations": [],
  "relations": {
    "invites": {
      "type": "hasMany",
      "model": "AutomateInvite",
      "foreignKey": ""
    }
  },
  "acls": [
    {
      "accessType": "*",
      "principalType": "ROLE",
      "principalId": "$everyone",
      "permission": "DENY"
    }
  ],
  "methods": {}
}
