{
  "name": "Product",
  "base": "PersistedModel",
  "idInjection": true,
  "options": {
    "validateUpsert": true
  },
  "properties": {
    "name": {
      "type": "string",
      "required": true
    },
    "description": {
      "type": "string",
      "required": true
    },
    "price": {
      "type": "number",
      "required": true
    },
    "date": {
      "type": "date",
      "required": true
    },
    "duration": {
      "type": "number",
      "required": true
    },
    "default": {
      "type": "boolean",
      "required": true
    }
  },
  "validations": [],
  "relations": {
    "client": {
      "type": "belongsTo",
      "model": "Client",
      "foreignKey": ""
    }
  },
  "acls": [
    {
      "accessType": "*",
      "principalType": "ROLE",
      "principalId": "$everyone",
      "permission": "DENY"
    }
  ],
  "methods": {}
}
